##########################################################################
# N.B.: line starting with # is a comment
#
# Content:
# --------
# Charts for CR species (stable or decay of the order of propagation time)
# Z range = [-2, 30]  =>  NCRs = 103
#
# List of ghosts:
# --------------
# Maurin, PhD thesis (2001)
#   CRs in cumulative taken from Letaw et al., ApJS 56, 369 (1984),
#   http://adsabs.harvard.edu/abs/1984ApJS...56..369L,
#   with branching ratios updated from Maurin (2001).
#
# Format: CRn must be sorted by growing charge and mass
# -------
#   Col1:  m [amu]
#   Col2:  charge Z
#   Col3:  Atomic number A
#   Col4:  Name
#   Col5:  Type: STABLE, BETA, EC, BETA-FED, EC-FED, MIX, MIX-FED
#   Col6:  Mean radius of nucleus [fm]
#   Col7:  Separator "||"
#   Col8:  BETA-decay half-life of CR (set to zero if stable)
#   Col9:  BETA-decay error on half-life
#   Col10: BETA-decay unit (s, d, yr, kyr, or Myr)
#   Col11: BETA-decay (parent or daughter) name for this CR: "---" if none
#   Col12: Separator "|"
#   Col13: EC-decay half-life of CR (set to zero if stable)
#   Col14: EC-decay error on half-life
#   Col15: EC-decay unit (s, d, yr, kyr, or Myr)
#   Col16: EC-decay (parent or daughter) name for this CR: "---" if none
#   Col17: Separator "||"
#   Col18: Number N of ghosts for cumulative (to get effective cross-section)
#   Col{19+3i,20+3i,21+3i,21+3i}_{i=1...N}: quadruplet {"|", Z, A, branching ratio} for the N nuclei (A,Z)_{i} contributing to the cumulative of the CR
#
#     m(amu)     Z   A   Name      type   r_rms     BETA  err   Unit   Name      EC    err   Unit    Name     nGhosts   Z1   A1   Br1    ...
##########################################################################

 2.0135533     -1   2  2H-bar    STABLE  2.095  ||  0.    0.    XXX   ---   |   0.     0.    XXX    ---  ||    0   |
 1.0069845     -1   1  1H-bar    STABLE  0.840  ||  0.    0.    XXX   ---   |   0.     0.    XXX    ---  ||    0   |
 1.0069845      1   1   1H       STABLE  0.840  ||  0.    0.    XXX   ---   |   0.     0.    XXX    ---  ||    1   |   0   1 1.00e+02
 2.0135533      1   2   2H       STABLE  2.095  ||  0.    0.    XXX   ---   |   0.     0.    XXX    ---  ||    0   |
 3.01602931     2   3   3He      STABLE  1.976  ||  0.    0.    XXX   ---   |   0.     0.    XXX    ---  ||    1   |   1   3 1.00e+02
 4.00260325     2   4   4He      STABLE  1.676  ||  0.    0.    XXX   ---   |   0.     0.    XXX    ---  ||   10   |   2   8 8.40e+01 |   3   8 1.00e+02 |   5   8 1.00e+02 |   3   9 5.08e+01 |   6   9 1.00e+02 |   3  11 1.90e+00 |   4  12 1.59e+00 |   5  12 1.60e+00 |   7  12 3.50e+00 |   4  14 8.00e-02
 6.0151223      3   6   6Li      STABLE  2.540  ||  0.    0.    XXX   ---   |   0.     0.    XXX    ---  ||    1   |   2   6 1.00e+02
 7.016004       3   7   7Li      EC-FED  2.390  ||  0.    0.    XXX   ---   |   0.     0.    XXX    7Be  ||    2   |   3  11 2.34e-01 |   4  11 2.90e+00
 7.0169292      4   7   7Be          EC  2.450  ||  0.    0.    XXX   ---   |  53.29   0.07    d    7Li  ||    0   |
 9.0121821      4   9   9Be      STABLE  2.500  ||  0.    0.    XXX   ---   |   0.     0.    XXX    ---  ||    1   |   3   9 4.92e+01
 10.012937      5  10  10B     BETA-FED  2.450  ||  0.    0.    XXX   10Be  |   0.     0.    XXX    ---  ||    1   |   6  10 1.00e+02
 10.0135337     4  10  10Be        BETA  2.500  ||  1.387 0.012 Myr   10B   |   0.     0.    XXX    ---  ||    1   |   3  11 8.49e+01
 11.0093055     5  11  11B       STABLE  2.450  ||  0.    0.    XXX   ---   |   0.     0.    XXX    ---  ||    4   |   3  11 7.84e+00 |   4  11 9.71e+01 |   6  11 1.00e+02 |   4  12 5.20e-01
 12.0000        6  12  12C       STABLE  2.471  ||  0.    0.    XXX   ---   |   0.     0.    XXX    ---  ||    4   |   4  12 9.79e+01 |   5  12 9.84e+01 |   7  12 9.65e+01 |   8  13 1.09e+01
 13.0033548     6  13  13C       STABLE  2.440  ||  0.    0.    XXX   ---   |   0.     0.    XXX    ---  ||    3   |   5  13 9.97e+01 |   7  13 1.00e+02 |   8  13 8.91e+01
 14.0030740     7  14  14N     BETA-FED  2.540  ||  0.    0.    XXX   14C   |   0.     0.    XXX    ---  ||    1   |   8  14 1.00e+02
 14.0032420     6  14  14C         BETA  2.560  ||  5.73  4.e-2 kyr   14N   |   0.     0.    XXX    ---  ||    1   |   5  14 9.40e+01
 15.0001089     7  15  15N       STABLE  2.611  ||  0.    0.    XXX   ---   |   0.     0.    XXX    ---  ||    3   |   6  15 1.00e+02 |   8  15 1.00e+02 |   6  16 9.79e+01
 15.9949146     8  16  16O       STABLE  2.737  ||  0.    0.    XXX   ---   |   0.     0.    XXX    ---  ||    4   |   7  16 1.00e+02 |   7  17 9.50e+01 |  10  17 9.60e+01 |  11  20 2.50e+01
 16.9991315     8  17  17O       STABLE  2.662  ||  0.    0.    XXX   ---   |   0.     0.    XXX    ---  ||    2   |   7  17 5.00e+00 |   9  17 1.00e+02
 17.9991604     8  18  18O       STABLE  2.727  ||  0.    0.    XXX   ---   |   0.     0.    XXX    ---  ||    3   |   7  18 7.69e+01 |   9  18 1.00e+02 |  10  18 1.00e+02
 18.9984032     9  19  19F       STABLE  2.900  ||  0.    0.    XXX   ---   |   0.     0.    XXX    ---  ||    2   |   8  19 1.00e+02 |  10  19 1.00e+02
 19.9924402    10  20  20Ne      STABLE  2.992  ||  0.    0.    XXX   ---   |   0.     0.    XXX    ---  ||    4   |   8  20 1.00e+02 |   9  20 1.00e+02 |  11  20 7.50e+01 |  12  21 3.26e+01
 20.9938467    10  21  21Ne      STABLE  3.000  ||  0.    0.    XXX   ---   |   0.     0.    XXX    ---  ||    3   |   9  21 1.00e+02 |  11  21 1.00e+02 |  12  21 6.69e+01
 21.9913855    10  22  22Ne      STABLE  2.969  ||  0.    0.    XXX   ---   |   0.     0.    XXX    ---  ||    3   |   9  22 8.90e+01 |  11  22 1.00e+02 |  12  22 1.00e+02
 22.9897697    11  23  23Na      STABLE  2.940  ||  0.    0.    XXX   ---   |   0.     0.    XXX    ---  ||    3   |   9  23 8.60e+01 |  10  23 1.00e+02 |  12  23 1.00e+02
 23.9850419    12  24  24Mg      STABLE  3.080  ||  0.    0.    XXX   ---   |   0.     0.    XXX    ---  ||    3   |  10  24 1.00e+02 |  11  24 1.00e+02 |  13  24 1.00e+02
 24.9858370    12  25  25Mg      STABLE  3.003  ||  0.    0.    XXX   ---   |   0.     0.    XXX    ---  ||    3   |  10  25 1.00e+02 |  11  25 1.00e+02 |  13  25 1.00e+02
 25.9825930    12  26  26Mg     MIX-FED  3.060  ||  0.    0.    XXX   26Al  |   0.     0.    XXX    26Al ||    1   |  11  26 1.00e+02
 25.9868917    13  26  26Al         MIX  3.060  ||  0.91  0.04  Myr   26Mg  |   4.08   0.15  Myr    26Mg ||    1   |  14  26 1.00e+02
 26.9815384    13  27  27Al      STABLE  3.035  ||  0.    0.    XXX   ---   |   0.     0.    XXX    ---  ||    4   |  11  27 9.99e+01 |  12  27 1.00e+02 |  14  27 1.00e+02 |  11  28 5.80e-01
 27.9769265    14  28  28Si      STABLE  3.086  ||  0.    0.    XXX   ---   |   0.     0.    XXX    ---  ||    5   |  11  28 9.94e+01 |  12  28 1.00e+02 |  13  28 1.00e+02 |  15  28 1.00e+02 |  11  29 2.59e+01
 28.9764947    14  29  29Si      STABLE  3.079  ||  0.    0.    XXX   ---   |   0.     0.    XXX    ---  ||    5   |  11  29 7.41e+01 |  12  29 1.00e+02 |  13  29 1.00e+02 |  15  29 1.00e+02 |  11  30 3.00e+01
 29.9737702    14  30  30Si      STABLE  3.176  ||  0.    0.    XXX   ---   |   0.     0.    XXX    ---  ||    6   |  11  30 6.88e+01 |  12  30 9.99e+01 |  13  30 1.00e+02 |  15  30 1.00e+02 |  16  30 1.00e+02 |  11  31 3.90e+01
 30.9737615    15  31  31P       STABLE  3.190  ||  0.    0.    XXX   ---   |   0.     0.    XXX    ---  ||    5   |  11  31 6.00e+01 |  12  31 9.67e+01 |  13  31 9.84e+01 |  14  31 1.00e+02 |  16  31 1.00e+02
 31.9720707    16  32  32S       STABLE  3.240  ||  0.    0.    XXX   ---   |   0.     0.    XXX    ---  ||    6   |  12  32 9.69e+01 |  13  32 9.93e+01 |  14  32 1.00e+02 |  15  32 1.00e+02 |  17  32 9.99e+01 |  18  33 3.87e+01
 32.9714585    16  33  33S       STABLE  3.260  ||  0.    0.    XXX   ---   |   0.     0.    XXX    ---  ||    6   |  12  33 7.59e+01 |  13  33 9.15e+01 |  14  33 1.00e+02 |  15  33 1.00e+02 |  17  33 1.00e+02 |  18  33 6.13e+01
 33.9678668    16  34  34S       STABLE  3.281  ||  0.    0.    XXX   ---   |   0.     0.    XXX    ---  ||    4   |  14  34 1.00e+02 |  15  34 1.00e+02 |  17  34 1.00e+02 |  18  34 1.00e+02
 34.9688527    17  35  35Cl      STABLE  3.388  ||  0.    0.    XXX   ---   |   0.     0.    XXX    ---  ||    3   |  15  35 1.00e+02 |  16  35 1.00e+02 |  18  35 1.00e+02
 35.9670809    16  36  36S       EC-FED  3.278  ||  0.    0.    XXX   ---   |   0.     0.    XXX    36Cl ||    0   |
 35.9675463    18  36  36Ar    BETA-FED  3.327  ||  0.    0.    XXX   36Cl  |   0.     0.    XXX    ---  ||    2   |  19  36 9.99e+01 |  20  37 7.45e+01
 35.9683069    17  36  36Cl         MIX  3.380  ||  0.307 0.002 Myr   36Ar  |  15.84   0.11  Myr    36S  ||    0   |
 36.9659026    17  37  37Cl      EC-FED  3.384  ||  0.    0.    XXX   ---   |   0.     0.    XXX    37Ar ||    1   |  16  37 1.00e+02
 36.9667759    18  37  37Ar          EC  3.350  ||  0.    0.    XXX   ---   |  35.04   0.04   d     37Cl ||    2   |  19  37 1.00e+02 |  20  37 2.55e+01
 37.9627322    18  38  38Ar      STABLE  3.350  ||  0.    0.    XXX   ---   |   0.     0.    XXX    ---  ||    4   |  16  38 1.00e+02 |  17  38 1.00e+02 |  19  38 1.00e+02 |  20  38 1.00e+02
 38.9637069    19  39  39K       STABLE  3.408  ||  0.    0.    XXX   ---   |   0.     0.    XXX    ---  ||    3   |  17  39 1.00e+02 |  18  39 1.00e+02 |  20  39 1.00e+02
 39.9623831    18  40  40Ar      STABLE  3.423  ||  0.    0.    XXX   ---   |   0.     0.    XXX    ---  ||    1   |  17  40 1.00e+02
 39.962592     20  40  40Ca      STABLE  3.479  ||  0.    0.    XXX   ---   |   0.     0.    XXX    ---  ||    2   |  21  40 9.95e+01 |  22  41 1.00e+02
 39.9639987    19  40  40K       STABLE  3.450  ||  0.    0.    XXX   ---   |   0.     0.    XXX    ---  ||    0   |
 40.9618260    19  41  41K       EC-FED  3.450  ||  0.    0.    XXX   ---   |   0.     0.    XXX    41Ca ||    2   |  17  41 1.00e+02 |  18  41 1.00e+02
 40.9622783    20  41  41Ca          EC  3.480  ||  0.    0.    XXX   ---   | 103.     4.    kyr    41K  ||    1   |  21  41 1.00e+02
 41.9586183    20  42  42Ca      STABLE  3.480  ||  0.    0.    XXX   ---   |   0.     0.    XXX    ---  ||    4   |  18  42 1.00e+02 |  19  42 1.00e+02 |  21  42 1.00e+02 |  22  42 1.00e+02
 42.9587668    20  43  43Ca      STABLE  3.480  ||  0.    0.    XXX   ---   |   0.     0.    XXX    ---  ||    4   |  18  43 1.00e+02 |  19  43 1.00e+02 |  21  43 1.00e+02 |  22  43 1.00e+02
 43.9554811    20  44  44Ca      EC-FED  3.480  ||  0.    0.    XXX   ---   |   0.     0.    XXX    44Ti ||    3   |  18  44 1.00e+02 |  19  44 1.00e+02 |  21  44 1.00e+02
 43.9596902    22  44  44Ti          EC  3.500  ||  0.    0.    XXX   ---   |  49.0    3.0    yr    44Ca ||    1   |  24  45 2.70e+01
 44.9559102    21  45  45Sc      STABLE  3.500  ||  0.    0.    XXX   ---   |   0.     0.    XXX    ---  ||    5   |  19  45 1.00e+02 |  20  45 1.00e+02 |  22  45 1.00e+02 |  23  45 1.00e+02 |  24  45 7.30e+01
 45.9526295    22  46  46Ti      STABLE  3.500  ||  0.    0.    XXX   ---   |   0.     0.    XXX    ---  ||    3   |  21  46 1.00e+02 |  23  46 1.00e+02 |  24  46 1.00e+02
 45.9536928    20  46  46Ca      STABLE  3.480  ||  0.    0.    XXX   ---   |   0.     0.    XXX    ---  ||    1   |  19  46 1.00e+02
 46.9517638    22  47  47Ti      STABLE  3.600  ||  0.    0.    XXX   ---   |   0.     0.    XXX    ---  ||    4   |  19  47 1.00e+02 |  20  47 1.00e+02 |  21  47 1.00e+02 |  23  47 1.00e+02
 47.9479471    22  48  48Ti      EC-FED  3.597  ||  0.    0.    XXX   ---   |   0.     0.    XXX    48Cr ||    2   |  21  48 1.00e+02 |  23  48 1.00e+02
 47.952534     20  48  48Ca      STABLE  3.470  ||  0.    0.    XXX   ---   |   0.     0.    XXX    ---  ||    1   |  19  48 9.89e+01
 47.954036     24  48  48Cr          EC  3.600  ||  0.    0.    XXX   ---   |  21.56   0.03    h    48Ti ||    0   |
 48.9478708    22  49  49Ti      EC-FED  3.600  ||  0.    0.    XXX   ---   |   0.     0.    XXX    49V  ||    3   |  19  49 1.40e+01 |  20  49 1.00e+02 |  21  49 1.00e+02
 48.9485169    23  49  49V           EC  3.600  ||  0.    0.    XXX   ---   | 330.    15.      d    49Ti ||    2   |  24  49 1.00e+02 |  25  49 1.00e+02
 49.9447921    22  50  50Ti      STABLE  3.573  ||  0.    0.    XXX   ---   |   0.     0.    XXX    ---  ||    3   |  19  50 7.10e+01 |  20  50 1.00e+02 |  21  50 1.00e+02
 49.9460496    24  50  50Cr      STABLE  3.638  ||  0.    0.    XXX   ---   |   0.     0.    XXX    ---  ||    1   |  25  50 1.00e+02
 49.9471628    23  50  50V       STABLE  3.600  ||  0.    0.    XXX   ---   |   0.     0.    XXX    ---  ||    0   |
 50.9439637    23  51  51V       EC-FED  3.615  ||  0.    0.    XXX   ---   |   0.     0.    XXX    51Cr ||    2   |  21  51 1.00e+02 |  22  51 1.00e+02
 50.9447718    24  51  51Cr          EC  3.650  ||  0.    0.    XXX   ---   |  27.702  0.004   d    51V  ||    1   |  25  51 1.00e+02
 51.9405119    24  52  52Cr      STABLE  3.684  ||  0.    0.    XXX   ---   |   0.     0.    XXX    ---  ||    4   |  22  52 1.00e+02 |  23  52 1.00e+02 |  25  52 1.00e+02 |  26  52 1.00e+02
 52.9406538    24  53  53Cr      EC-FED  3.684  ||  0.    0.    XXX   ---   |   0.     0.    XXX    53Mn ||    2   |  22  53 1.00e+02 |  23  53 1.00e+02
 52.9412947    25  53  53Mn          EC  3.600  ||  0.    0.    XXX   ---   |   3.74   0.04  Myr    53Cr ||    2   |  26  53 1.00e+02 |  27  53 1.00e+02
 53.9388849    24  54  54Cr      EC-FED  3.673  ||  0.    0.    XXX   ---   |   0.     0.    XXX    54Mn ||    1   |  23  54 1.00e+02
 53.9396148    26  54  54Fe    BETA-FED  3.680  ||  0.    0.    XXX   54Mn  |   0.     0.    XXX    ---  ||    1   |  27  54 1.00e+02
 53.9403632    25  54  54Mn         MIX  3.680  ||  0.494 0.006 Myr   54Fe  | 312.3    0.4     d    54Cr ||    0   |
 54.9380496    25  55  55Mn      EC-FED  3.680  ||  0.    0.    XXX   ---   |   0.     0.    XXX    55Fe ||    1   |  24  55 1.00e+02
 54.938298     26  55  55Fe          EC  3.700  ||  0.    0.    XXX   ---   |  2.73    0.03   yr    55Mn ||    1   |  27  55 1.00e+02
 55.9349421    26  56  56Fe     MIX-FED  3.729  ||  0.    0.    XXX   56Ni  |   0.     0.    XXX    56Ni ||    3   |  24  56 1.00e+02 |  25  56 1.00e+02 |  27  56 1.00e+02
 55.942136     28  56  56Ni         MIX  3.740  ||  0.051 0.022 Myr   56Fe  |   6.075  0.02    d    56Fe ||    0   |
 56.9353987    26  57  57Fe      EC-FED  3.750  ||  0.    0.    XXX   ---   |   0.     0.    XXX    57Co ||    1   |  25  57 1.00e+02
 56.9362962    27  57  57Co          EC  3.750  ||  0.    0.    XXX   ---   | 271.79   0.09    d    57Fe ||    1   |  28  57 1.00e+02
 57.9332805    26  58  58Fe      STABLE  3.767  ||  0.    0.    XXX   ---   |   0.     0.    XXX    ---  ||    2   |  25  58 1.00e+02 |  27  58 1.00e+02
 57.9353479    28  58  58Ni      STABLE  3.772  ||  0.    0.    XXX   ---   |   0.     0.    XXX    ---  ||    1   |  29  58 1.00e+02
 58.9332002    27  59  59Co      EC-FED  3.864  ||  0.    0.    XXX   ---   |   0.     0.    XXX    59Ni ||    1   |  26  59 1.00e+02
 58.9343516    28  59  59Ni          EC  3.750  ||  0.    0.    XXX   ---   |  80.    11.    kyr    59Co ||    1   |  29  59 1.00e+02
 59.9307906    28  60  60Ni    BETA-FED  3.796  ||  0.    0.    XXX   60Fe  |   0.     0.    XXX    ---  ||    3   |  27  60 1.00e+02 |  29  60 1.00e+02 |  30  60 1.00e+02
 59.934077     26  60  60Fe        BETA  3.788  ||  1.5   0.3   Myr   60Ni  |   0.     0.    XXX    ---  ||    0   |
 60.9310604    28  61  61Ni      STABLE  3.806  ||  0.    0.    XXX   ---   |   0.     0.    XXX    ---  ||    4   |  26  61 1.00e+02 |  27  61 1.00e+02 |  29  61 1.00e+02 |  30  61 1.00e+02
 61.9283488    28  62  62Ni      STABLE  3.822  ||  0.    0.    XXX   ---   |   0.     0.    XXX    ---  ||    4   |  26  62 1.00e+02 |  27  62 1.00e+02 |  29  62 1.00e+02 |  30  62 1.00e+02
 62.9296011    29  63  63Cu      STABLE  3.947  ||  0.    0.    XXX   ---   |   0.     0.    XXX    ---  ||    3   |  27  63 1.00e+02 |  28  63 1.00e+02 |  30  63 1.00e+02
 63.9279696    28  64  64Ni      STABLE  3.845  ||  0.    0.    XXX   ---   |   0.     0.    XXX    ---  ||    2   |  27  64 1.00e+02 |  29  64 6.10e+01
 63.9291466    30  64  64Zn      STABLE  3.923  ||  0.    0.    XXX   ---   |   0.     0.    XXX    ---  ||    1   |  29  64 3.90e+01
 64.9277937    29  65  65Cu      STABLE  3.954  ||  0.    0.    XXX   ---   |   0.     0.    XXX    ---  ||    2   |  28  65 1.00e+02 |  30  65 1.00e+02
 65.9260368    30  66  66Zn      STABLE  3.931  ||  0.    0.    XXX   ---   |   0.     0.    XXX    ---  ||    2   |  28  66 1.00e+02 |  29  66 1.00e+02
 66.9271309    30  67  67Zn      STABLE  3.950  ||  0.    0.    XXX   ---   |   0.     0.    XXX    ---  ||    2   |  28  67 1.00e+02 |  29  67 1.00e+02
 67.9248476    30  68  68Zn      STABLE  3.963  ||  0.    0.    XXX   ---   |   0.     0.    XXX    ---  ||    1   |  29  68 1.00e+02
 69.925325     30  70  70Zn      STABLE  3.986  ||  0.    0.    XXX   ---   |   0.     0.    XXX    ---  ||    1   |  29  70 1.00e+02
