
               -------------------
                 TUAxesCrE::TEST
               -------------------

- Class content: Handles CR and E multiple axes (for families kNUC,
kANTINUC, and kLEPTON) for CR propagation.

 * Set class and print summary
   > SetClass(init_pars="inputs/init.TEST.par", is_verbose=false, f_log=stdout);
   > PrintESummary(f);
      => Nuclei                  Ekn   [GeV/n]   : 33 bins in [5.000e-02,5.000e+03] (log-step=1.4330e+00)
      => Anti-nuclei             Ekn   [GeV/n]   : 33 bins in [5.000e-02,1.000e+02] (log-step=1.2681e+00)
      => E-dependent variables: beta,gamma,p,Rig,Ek,Ekn,Etot  (7 E-variables)

   > PrintEVarsValues(f, bincr=7, true)
CR(7) = 7LI
EVarNames = beta,gamma,p,Rig,Ek,Ekn,Etot
k     beta [-]     gamma [-]    p [GeV]      Rig [GV]     Ek [GeV]     Ekn [GeV/n]  Etot [GeV] 
  [* values correspond to half-upper bin values]
 33*  1.000e+00    6.412e+03    4.190e+04    1.397e+04    4.190e+04    5.985e+03    4.190e+04    
 32   1.000e+00    5.356e+03    3.501e+04    1.167e+04    3.500e+04    5.000e+03    3.501e+04    
 32*  1.000e+00    4.475e+03    2.924e+04    9.748e+03    2.924e+04    4.177e+03    2.924e+04    
 31   1.000e+00    3.738e+03    2.443e+04    8.144e+03    2.442e+04    3.489e+03    2.443e+04    
 31*  1.000e+00    3.123e+03    2.041e+04    6.803e+03    2.040e+04    2.915e+03    2.041e+04    
 30   1.000e+00    2.609e+03    1.705e+04    5.683e+03    1.704e+04    2.435e+03    1.705e+04    
 30*  1.000e+00    2.180e+03    1.424e+04    4.748e+03    1.424e+04    2.034e+03    1.424e+04    
 29   1.000e+00    1.821e+03    1.190e+04    3.967e+03    1.189e+04    1.699e+03    1.190e+04    
 29*  1.000e+00    1.521e+03    9.942e+03    3.314e+03    9.936e+03    1.419e+03    9.942e+03    
 28   1.000e+00    1.271e+03    8.306e+03    2.769e+03    8.300e+03    1.186e+03    8.306e+03    
 28*  1.000e+00    1.062e+03    6.940e+03    2.313e+03    6.933e+03    9.905e+02    6.940e+03    
 27   1.000e+00    8.872e+02    5.798e+03    1.933e+03    5.792e+03    8.274e+02    5.798e+03    
 27*  1.000e+00    7.413e+02    4.845e+03    1.615e+03    4.838e+03    6.912e+02    4.845e+03    
 26   1.000e+00    6.194e+02    4.048e+03    1.349e+03    4.042e+03    5.774e+02    4.048e+03    
 26*  1.000e+00    5.176e+02    3.383e+03    1.128e+03    3.376e+03    4.823e+02    3.383e+03    
 25   1.000e+00    4.326e+02    2.827e+03    9.423e+02    2.820e+03    4.029e+02    2.827e+03    
 25*  1.000e+00    3.615e+02    2.363e+03    7.875e+02    2.356e+03    3.366e+02    2.363e+03    
 24   1.000e+00    3.022e+02    1.975e+03    6.582e+02    1.968e+03    2.812e+02    1.975e+03    
 24*  1.000e+00    2.526e+02    1.651e+03    5.502e+02    1.644e+03    2.349e+02    1.651e+03    
 23   1.000e+00    2.112e+02    1.380e+03    4.600e+02    1.373e+03    1.962e+02    1.380e+03    
 23*  1.000e+00    1.766e+02    1.154e+03    3.846e+02    1.147e+03    1.639e+02    1.154e+03    
 22   1.000e+00    1.477e+02    9.650e+02    3.217e+02    9.584e+02    1.369e+02    9.650e+02    
 22*  1.000e+00    1.235e+02    8.072e+02    2.691e+02    8.007e+02    1.144e+02    8.072e+02    
 21   1.000e+00    1.033e+02    6.753e+02    2.251e+02    6.688e+02    9.555e+01    6.754e+02    
 21*  9.999e-01    8.649e+01    5.652e+02    1.884e+02    5.587e+02    7.982e+01    5.653e+02    
 20   9.999e-01    7.242e+01    4.732e+02    1.577e+02    4.667e+02    6.668e+01    4.733e+02    
 20*  9.999e-01    6.066e+01    3.964e+02    1.321e+02    3.899e+02    5.570e+01    3.964e+02    
 19   9.998e-01    5.084e+01    3.322e+02    1.107e+02    3.257e+02    4.653e+01    3.322e+02    
 19*  9.997e-01    4.263e+01    2.785e+02    9.285e+01    2.721e+02    3.887e+01    2.786e+02    
 18   9.996e-01    3.578e+01    2.337e+02    7.791e+01    2.273e+02    3.247e+01    2.338e+02    
 18*  9.994e-01    3.005e+01    1.963e+02    6.543e+01    1.899e+02    2.712e+01    1.964e+02    
 17   9.992e-01    2.527e+01    1.650e+02    5.500e+01    1.586e+02    2.266e+01    1.651e+02    
 17*  9.989e-01    2.127e+01    1.389e+02    4.629e+01    1.325e+02    1.893e+01    1.390e+02    
 16   9.984e-01    1.794e+01    1.170e+02    3.901e+01    1.107e+02    1.581e+01    1.172e+02    
 16*  9.978e-01    1.515e+01    9.878e+01    3.293e+01    9.246e+01    1.321e+01    9.899e+01    
 15   9.970e-01    1.282e+01    8.352e+01    2.784e+01    7.724e+01    1.103e+01    8.377e+01    
 15*  9.958e-01    1.087e+01    7.075e+01    2.358e+01    6.452e+01    9.217e+00    7.106e+01    
 14   9.941e-01    9.247e+00    6.008e+01    2.003e+01    5.390e+01    7.700e+00    6.043e+01    
 14*  9.919e-01    7.889e+00    5.114e+01    1.705e+01    4.502e+01    6.432e+00    5.156e+01    
 13   9.890e-01    6.755e+00    4.366e+01    1.455e+01    3.761e+01    5.373e+00    4.415e+01    
 13*  9.851e-01    5.808e+00    3.739e+01    1.246e+01    3.142e+01    4.488e+00    3.795e+01    
 12   9.799e-01    5.016e+00    3.212e+01    1.071e+01    2.625e+01    3.749e+00    3.278e+01    
 12*  9.733e-01    4.355e+00    2.770e+01    9.233e+00    2.193e+01    3.132e+00    2.846e+01    
 11   9.648e-01    3.803e+00    2.398e+01    7.992e+00    1.832e+01    2.616e+00    2.485e+01    
 11*  9.542e-01    3.341e+00    2.083e+01    6.945e+00    1.530e+01    2.186e+00    2.184e+01    
 10   9.410e-01    2.956e+00    1.818e+01    6.059e+00    1.278e+01    1.826e+00    1.932e+01    
 10*  9.251e-01    2.634e+00    1.592e+01    5.308e+00    1.068e+01    1.525e+00    1.721e+01    
  9   9.062e-01    2.365e+00    1.400e+01    4.668e+00    8.919e+00    1.274e+00    1.545e+01    
  9*  8.841e-01    2.140e+00    1.237e+01    4.122e+00    7.451e+00    1.064e+00    1.399e+01    
  8   8.589e-01    1.952e+00    1.096e+01    3.653e+00    6.224e+00    8.891e-01    1.276e+01    
  8*  8.306e-01    1.796e+00    9.746e+00    3.249e+00    5.199e+00    7.428e-01    1.173e+01    
  7   7.994e-01    1.665e+00    8.697e+00    2.899e+00    4.343e+00    6.205e-01    1.088e+01    
  7*  7.659e-01    1.555e+00    7.784e+00    2.595e+00    3.628e+00    5.183e-01    1.016e+01    
  6   7.303e-01    1.464e+00    6.986e+00    2.329e+00    3.031e+00    4.330e-01    9.566e+00    
  6*  6.932e-01    1.387e+00    6.285e+00    2.095e+00    2.532e+00    3.617e-01    9.067e+00    
  5   6.552e-01    1.324e+00    5.667e+00    1.889e+00    2.115e+00    3.021e-01    8.650e+00    
  5*  6.167e-01    1.270e+00    5.120e+00    1.707e+00    1.767e+00    2.524e-01    8.302e+00    
  4   5.784e-01    1.226e+00    4.634e+00    1.545e+00    1.476e+00    2.108e-01    8.011e+00    
  4*  5.406e-01    1.189e+00    4.199e+00    1.400e+00    1.233e+00    1.761e-01    7.768e+00    
  3   5.037e-01    1.158e+00    3.811e+00    1.270e+00    1.030e+00    1.471e-01    7.565e+00    
  3*  4.681e-01    1.132e+00    3.462e+00    1.154e+00    8.604e-01    1.229e-01    7.396e+00    
  2   4.340e-01    1.110e+00    3.148e+00    1.049e+00    7.187e-01    1.027e-01    7.254e+00    
  2*  4.015e-01    1.092e+00    2.865e+00    9.550e-01    6.004e-01    8.577e-02    7.136e+00    
  1   3.708e-01    1.077e+00    2.609e+00    8.697e-01    5.016e-01    7.165e-02    7.037e+00    
  1*  3.419e-01    1.064e+00    2.377e+00    7.925e-01    4.190e-01    5.985e-02    6.954e+00    
  0   3.148e-01    1.054e+00    2.167e+00    7.224e-01    3.500e-01    5.000e-02    6.885e+00    
  0*  2.895e-01    1.045e+00    1.977e+00    6.589e-01    2.924e-01    4.177e-02    6.828e+00    

   > FormEVarsVals(bincr=7, bine=2, halfbin_status=0) => (4.340e-01,1.110e+00,3.148e+00,1.049e+00,7.187e-01,1.027e-01,7.254e+00)
   > FormEVarsVals(bincr=7, bine=2, halfbin_status=-1)  => (4.015e-01,1.092e+00,2.865e+00,9.550e-01,6.004e-01,8.577e-02,7.136e+00)
   > FormEVarsVals(bincr=7, bine=2, halfbin_status=+1)  => (4.681e-01,1.132e+00,3.462e+00,1.154e+00,8.604e-01,1.229e-01,7.396e+00)
   > TUCoordE coord_e;
   > coord_e.SetBinE(bine, halfbin_status=0);
   > ConvertBinE2ValsE(bincr, &coord_e, is_use_or_copy=true);
   > coord_e.FormValsE() => (4.340e-01,1.110e+00,3.148e+00,1.049e+00,7.187e-01,1.027e-01,7.254e+00);
   > coord_e.SetBinE(bine, halfbin_status=1);
   > ConvertBinE2ValsE(bincr, &coord_e, is_use_or_copy=true);
   > coord_e.FormValsE() => (4.681e-01,1.132e+00,3.462e+00,1.154e+00,8.604e-01,1.229e-01,7.396e+00);

   > IsComboPossibleForEGrids(combo=ELECTRON, &combo_family, f)
      =>  combo_family = Anti-nuclei
   > IsComboPossibleForEGrids(combo=1H-BAR, &combo_family, f)
      =>  combo_family = Anti-nuclei
   > IsComboPossibleForEGrids(combo=H, &combo_family, f)
      =>  combo_family = Nuclei
   > IsComboPossibleForEGrids(combo=B/C, &combo_family, f)
      =>  combo_family = Nuclei
   > IsComboPossibleForEGrids(combo=ELECTRON/POSITRON, &combo_family, f)

   ------- WARNING in TUAxesCrE::IsComboPossibleForEGrids -------
       Message: In combo ELECTRON/POSITRON, 2H-BAR (Anti-nuclei) is not on the same E grid as 1H-BAR (Anti-nuclei) => change E grids in initialisation file to make it work!
   ------- WARNING in TUAxesCrE::IsComboPossibleForEGrids -------
      =>  combo_family = Anti-nuclei
   > IsComboPossibleForEGrids(combo=1H-BAR/1H, &combo_family, f)

   ------- WARNING in TUAxesCrE::IsComboPossibleForEGrids -------
       Message: In combo 1H-BAR/1H, 1H-BAR (Anti-nuclei) is not on the same E grid as 1H (Nuclei) => change E grids in initialisation file to make it work!
   ------- WARNING in TUAxesCrE::IsComboPossibleForEGrids -------
      =>  combo_family = Anti-nuclei
   > IsComboPossibleForEGrids(combo=ELECTRON/1H, &combo_family, f)

   ------- WARNING in TUAxesCrE::IsComboPossibleForEGrids -------
       Message: In combo ELECTRON/1H, 2H-BAR (Anti-nuclei) is not on the same E grid as 1H-BAR (Anti-nuclei) => change E grids in initialisation file to make it work!
   ------- WARNING in TUAxesCrE::IsComboPossibleForEGrids -------
      =>  combo_family = Anti-nuclei

 * Test Copy method:
   > TUAxesCrE axes_cre; axes_cre.Copy(*this);
   > axes_cre.PrintESummary(f);
      => Nuclei                  Ekn   [GeV/n]   : 33 bins in [5.000e-02,5.000e+03] (log-step=1.4330e+00)
      => E-dependent variables: beta,gamma,p,Rig,Ek,Ekn,Etot  (7 E-variables)

   > axes_cre.PrintParents(f);
     --   0:    2H-BAR (parents:   1H-BAR,1H,4HE)
     --   1:    1H-BAR (parents:       1H,4HE)
     --   2:        1H (parents:      2H -> 30SI)
     --   3:        2H (parents:     3HE -> 30SI)
     --   4:       3HE (parents:     4HE -> 30SI)
     --   5:       4HE (parents:     6LI -> 30SI)
     --   6:       6LI (parents:     7LI -> 30SI)
     --   7:       7LI (parents:     7BE -> 30SI)
     --   8:       7BE (parents:     9BE -> 30SI)
     --   9:       9BE (parents:     10B -> 30SI)
     --  10:       10B (parents:    10BE -> 30SI)
     --  11:      10BE (parents:     11B -> 30SI)
     --  12:       11B (parents:     12C -> 30SI)
     --  13:       12C (parents:     13C -> 30SI)
     --  14:       13C (parents:     14N -> 30SI)
     --  15:       14N (parents:     14C -> 30SI)
     --  16:       14C (parents:     15N -> 30SI)
     --  17:       15N (parents:     16O -> 30SI)
     --  18:       16O (parents:     17O -> 30SI)
     --  19:       17O (parents:     18O -> 30SI)
     --  20:       18O (parents:     19F -> 30SI)
     --  21:       19F (parents:    20NE -> 30SI)
     --  22:      20NE (parents:    21NE -> 30SI)
     --  23:      21NE (parents:    22NE -> 30SI)
     --  24:      22NE (parents:    23NA -> 30SI)
     --  25:      23NA (parents:    24MG -> 30SI)
     --  26:      24MG (parents:    25MG -> 30SI)
     --  27:      25MG (parents:    26MG -> 30SI)
     --  28:      26MG (parents:    26AL -> 30SI)
     --  29:      26AL (parents:    27AL -> 30SI)
     --  30:      27AL (parents:    28SI -> 30SI)
     --  31:      28SI (parents:    29SI -> 30SI)
     --  32:      29SI (only one parent:    30SI)
     --  33:      30SI (primary - no parents)
   > PrintParents(f);
     --   0:    2H-BAR (parents:   1H-BAR,1H,4HE)
     --   1:    1H-BAR (parents:       1H,4HE)
     --   2:        1H (parents:      2H -> 30SI)
     --   3:        2H (parents:     3HE -> 30SI)
     --   4:       3HE (parents:     4HE -> 30SI)
     --   5:       4HE (parents:     6LI -> 30SI)
     --   6:       6LI (parents:     7LI -> 30SI)
     --   7:       7LI (parents:     7BE -> 30SI)
     --   8:       7BE (parents:     9BE -> 30SI)
     --   9:       9BE (parents:     10B -> 30SI)
     --  10:       10B (parents:    10BE -> 30SI)
     --  11:      10BE (parents:     11B -> 30SI)
     --  12:       11B (parents:     12C -> 30SI)
     --  13:       12C (parents:     13C -> 30SI)
     --  14:       13C (parents:     14N -> 30SI)
     --  15:       14N (parents:     14C -> 30SI)
     --  16:       14C (parents:     15N -> 30SI)
     --  17:       15N (parents:     16O -> 30SI)
     --  18:       16O (parents:     17O -> 30SI)
     --  19:       17O (parents:     18O -> 30SI)
     --  20:       18O (parents:     19F -> 30SI)
     --  21:       19F (parents:    20NE -> 30SI)
     --  22:      20NE (parents:    21NE -> 30SI)
     --  23:      21NE (parents:    22NE -> 30SI)
     --  24:      22NE (parents:    23NA -> 30SI)
     --  25:      23NA (parents:    24MG -> 30SI)
     --  26:      24MG (parents:    25MG -> 30SI)
     --  27:      25MG (parents:    26MG -> 30SI)
     --  28:      26MG (parents:    26AL -> 30SI)
     --  29:      26AL (parents:    27AL -> 30SI)
     --  30:      27AL (parents:    28SI -> 30SI)
     --  31:      28SI (parents:    29SI -> 30SI)
     --  32:      29SI (only one parent:    30SI)
     --  33:      30SI (primary - no parents)

* Print each E axis, and E grid for a family of CRs...
   > Index(1H-BAR, true, f);  => i_pbar=1
   > GetE(i_pbar)->PrintSummary(f);
      Ekn   [GeV/n]   : 33 bins in [5.000e-02,1.000e+02] (log-step=1.2681e+00)
   > GetEFamily(kANTINUC)->PrintSummary(f);
      Ekn   [GeV/n]   : 33 bins in [5.000e-02,1.000e+02] (log-step=1.2681e+00)
   > Index(1H, true, f);  => i_p=2   > GetE(i_p)->PrintSummary(f);
      Ekn   [GeV/n]   : 33 bins in [5.000e-02,5.000e+03] (log-step=1.4330e+00)

   ------- WARNING in TUCRList::IndexOfCR -------
       Message: could not find in list CR with name ELECTRON
   ------- WARNING in TUCRList::IndexOfCR -------
   > Index(10Be, true, f);  => i_10be=11
   > GetE(i_10be)->PrintSummary(f);
      Ekn   [GeV/n]   : 33 bins in [5.000e-02,5.000e+03] (log-step=1.4330e+00)
   > IndexClosest(i_10be, 0.5 GeV/n);  => k_05=6  => GetEkn(i_10be,k_05)=4.329822e-01
   > IndexClosest(i_10be, 1.0 GeV/n);  => k_1=8  => GetEkn(i_10be,k_1)=8.891397e-01
   > IndexClosest(i_10be, 5.0 GeV/n);  => k_5=12  => GetEkn(i_10be,k_5)=3.749471e+00
   > GammaRadBETA_perMyr(i_10be, k_05);  => 3.413103e-01
   > GammaRadBETA_perMyr(i_10be, k_1);  => 2.558546e-01
   > GammaRadBETA_perMyr(i_10be, k_5);  => 9.955524e-02

* Ekn axis range valid for combo=B/C
   > TUAxis *ekn_combo=OrphanGetECombo(combo=B/C, axis=kEKN, f_out=f);
   > ekn_combo->PrintSummary(f);
      Ekn   [GeV/n]   : 33 bins in [5.000e-02,5.000e+03] (log-step=1.4330e+00)

* ETOT axis range valid for combo=B/C
   > TUAxis *etot_combo=OrphanGetECombo(combo=B/C, axis=kETOT, f_out=f);
   > etot_combo->PrintSummary(f);
      Etot  [GeV]     : 33 bins in [1.374e+01,5.001e+04] (log-step=1.2921e+00)

* R axis range valid for combo=B/C
   > TUAxis *r_combo=OrphanGetECombo(combo=B/C, axis=kR, f_out=f);
   > r_combo->PrintSummary(f);
      R     [GV]      : 33 bins in [7.217e-01,1.000e+04] (log-step=1.3472e+00)

