
               -------------------
                 TUCREntry::TEST
               -------------------

- Class content: Simple list of properties useful to describe the CR
propagation (A, Z, name, m, BETA decay, EC decay, list of ghosts...).

   > SetEntry(CR_name=10Be, file_name=$USINE/inputs/crchartsZmax30_ghost97.dat, is_set_ghost=true);
   > GetNGhosts();  => 1
   > PrintGhosts(f);
     10BE   <=  11LI(84.9%)
   > Print(f);
      4   10       10BE   9.328e+00 GeV   2.500 fm |  BETA  t1/2=1.387e+00 Myr (+/-1.20e-02)
   > IsChargedCR();  => 1

   > SetEntry(CR_name=4He, file_name=$USINE/inputs/crchartsZmax30_ghost97.dat, is_set_ghost=true);
   > GetNGhosts();  => 10
   > Print(f, is_ghost=true);
      2    4        4HE   3.728e+00 GeV   1.676 fm | STABLE   ||   8HE (84.0%) 8LI (100.0%) 8B  (100.0%) 9LI (50.8%) 9C  (100.0%) 11LI(1.9%) 12BE(1.6%) 12B (1.6%) 12N (3.5%) 14BE(0.1%)

   > IsChargedCR();  => 1

 * Create 'cr' filled with 9Be, then copy it to class:
   > TUCREntry cr; cr.SetEntry(9Be, file_name, is_ghost=true);
   > cr.Print(f, true);
      4    9        9BE   8.395e+00 GeV   2.500 fm | STABLE   ||   9LI (49.2%) 11LI(4.1%)
   > Copy(cr);
   > Print(f, true);
      4    9        9BE   8.395e+00 GeV   2.500 fm | STABLE   ||   9LI (49.2%) 11LI(4.1%)
